<?xml version="1.0" standalone="no"?>
<!DOCTYPE svg PUBLIC "-//W3C//DTD SVG 1.1//EN" "http://www.w3.org/Graphics/SVG/1.1/DTD/svg11.dtd" >
<svg xmlns="http://www.w3.org/2000/svg">
<metadata>Generated by IcoMoon</metadata>
<defs>
<font id="icomoon" horiz-adv-x="1024">
<font-face units-per-em="1024" ascent="960" descent="-64" />
<missing-glyph horiz-adv-x="1024" />
<glyph unicode="&#x20;" d="" horiz-adv-x="512" />
<glyph unicode="&#xe600;" d="M526.933 959.644c275.911-7.822 497.067-233.956 497.067-511.644 0-282.667-229.333-512-512-512s-512 229.333-512 512c0 282.667 229.333 512 512 512v-73.244c-242.489 0-438.756-196.267-438.756-438.756s196.267-438.756 438.756-438.756c242.489 0 438.756 196.622 438.756 438.756 0 236.444-187.022 429.511-421.689 438.4l-24.889 0.711 3.556 72.533h19.2zM335.644 198.756v101.333h-206.222v84.622l218.667 320.356h81.067v-320h62.578v-84.978h-62.578v-101.333h-93.511zM335.644 385.422v172.444l-115.911-172.444h115.911zM669.156 271.289v131.2h-131.911v90.311h131.911v131.2h88.178v-131.2h132.267v-90.311h-132.267v-131.2h-88.178z" />
</font></defs></svg>